<svg width="48" height="48" viewBox="0 0 48 48" fill="none" xmlns="http://www.w3.org/2000/svg">
<g clip-path="url(#clip0)">
<path d="M17.4145 2.18401C11.5885 3.95001 6.79447 7.88801 3.91647 13.272C1.03847 18.656 0.424467 24.828 2.19047 30.656C5.84247 42.702 18.6125 49.53 30.6605 45.88C40.5085 42.894 46.8685 33.816 46.8685 24.02C46.8685 21.834 46.5505 19.608 45.8845 17.41C42.2325 5.36201 29.4605 -1.46799 17.4145 2.18401ZM44.5505 17.812C47.9785 29.122 41.5665 41.114 30.2565 44.544C24.7865 46.202 18.9885 45.626 13.9345 42.924C8.87846 40.22 5.18047 35.72 3.52247 30.248C2.89647 28.182 2.59847 26.096 2.59847 24.042C2.59847 14.846 8.57247 6.32001 17.8165 3.51801C29.1285 0.0880089 41.1205 6.50201 44.5505 17.812Z" fill="white"/>
<path d="M10.5706 14.576C10.4686 14.68 10.4766 14.838 10.5706 14.932L11.0946 15.456C11.1886 15.55 11.3466 15.558 11.4506 15.456L12.9746 13.934L18.4566 19.426C18.5506 19.52 18.7186 19.52 18.8126 19.426L19.4306 18.81C19.5246 18.716 19.5246 18.548 19.4306 18.454L13.9466 12.962L15.4706 11.44C15.5726 11.336 15.5646 11.178 15.4706 11.084L14.9466 10.56C14.8526 10.466 14.6946 10.458 14.5906 10.56L10.5706 14.576Z" fill="white"/>
<path d="M26.9928 16.966C26.8988 17.058 26.8888 17.218 26.9928 17.322L27.5988 17.93C27.6928 18.024 27.8608 18.024 27.9548 17.93L30.3428 15.55L31.7528 16.964L30.5128 20.684C30.4948 20.74 30.5028 20.844 30.5788 20.918L31.3068 21.648C31.4648 21.808 31.6808 21.722 31.7368 21.536L32.8368 17.88C33.9768 18.368 35.2588 18.23 36.1208 17.372C37.2348 16.26 37.2108 14.456 36.0888 13.332L33.5488 10.784C33.4468 10.68 33.2868 10.69 33.1928 10.784L26.9928 16.966ZM35.1048 14.164C35.7108 14.772 35.7388 15.81 35.1288 16.418C34.4828 17.062 33.4348 17.042 32.8288 16.434L31.1668 14.766L33.4428 12.496L35.1048 14.164Z" fill="white"/>
<path d="M14.3362 29.1821L13.8242 29.6961C13.7322 29.7901 13.7322 29.9581 13.8262 30.0521L16.3282 32.5381L14.1762 34.7041L11.2162 31.7621C11.1142 31.6601 10.9542 31.6681 10.8602 31.7621L10.3382 32.2861C10.2462 32.3801 10.2362 32.5381 10.3402 32.6401L14.0882 36.3641C14.1922 36.4661 14.3502 36.4561 14.4442 36.3641L20.6082 30.1601C20.7002 30.0681 20.7102 29.9081 20.6062 29.8061L19.9962 29.2021C19.9022 29.1081 19.7342 29.1101 19.6422 29.2021L17.1942 31.6661L14.6922 29.1801C14.5982 29.0881 14.4302 29.0881 14.3362 29.1821Z" fill="white"/>
<path d="M29.5985 34.432C30.7265 35.534 32.5345 35.514 33.6385 34.384C34.7405 33.256 34.7185 31.448 33.5905 30.346C32.4605 29.244 30.6525 29.264 29.5505 30.394C28.4485 31.522 28.4685 33.33 29.5985 34.432Z" fill="white"/>
</g>
<defs>
<clipPath id="clip0">
<rect width="45.666" height="45.662" fill="white" transform="translate(1.2002 1.19995)"/>
</clipPath>
</defs>
</svg>
