<svg version="1.1" id="Layer_1" xmlns="http://www.w3.org/2000/svg" xmlns:xlink="http://www.w3.org/1999/xlink" x="0px"
	y="0px" width="16px" height="16px" viewBox="0 0 407.437 407.437" style="enable-background:new 0 0 407.437 407.437;" xml:space="preserve">
	<polygon points="386.258,91.567 203.718,273.512 21.179,91.567 0,112.815 203.718,315.87 407.437,112.815 " />
	<g>
</svg>